Homework 2
…
There are so many observation in the same value just like tax rates.

I think the ptratio and tax rate may have relation so lets check.

Boston %>%
  group_by(ptratio, tax) %>%
  count() %>%
  arrange(desc(n))

# A tibble: 78 × 3
# Groups:   ptratio, tax [78]
   ptratio   tax     n
     <dbl> <dbl> <int>
 1    20.2   666   132
 2    14.7   403    30
 3    21     307    22
 4    17.4   307    18
 5    21.2   437    15
 6    13     264    12
 7    18.4   304    12
 8    18.6   277    11
 9    20.9   384    11
10    19.1   330    10
# ℹ 68 more rows
…
