IE 451 Fall 2023-2024 Homework 6
…
outliers0 <- as.numeric(names(cook1)[(cook1 > 4*mean(cook1, na.rm=T))])  # outlier row numbers
head(d0[outliers0, ])  # outlier observations.

# A tibble: 3 × 8
   Mort   Edu   Nwt  Jant  Rain   Nox   Hum   Inc
  <dbl> <dbl> <dbl> <dbl> <dbl> <dbl> <dbl> <dbl>
1  844.   9.5   2.9    32    43  1.95    54  30.2
2 1113.   9.7  31.4    54    54  2.83    62  32.7
3  912.   9     4.8    33    62  2.08    54  29.0

d1 <- d0 %>% slice(-c(26, 34, 55))
d1

# A tibble: 53 × 8
    Mort   Edu   Nwt  Jant  Rain   Nox   Hum   Inc
   <dbl> <dbl> <dbl> <dbl> <dbl> <dbl> <dbl> <dbl>
 1  922.  11.4   8.8    27    36  2.71    59  29.6
 2  998.  11     3.5    23    35  2.3     57  31.5
 3  962.   9.8   0.8    29    44  1.79    54  31.9
 4  982.  11.1  27.1    45    47  2.08    56  32.5
 5 1071.   9.6  24.4    35    43  3.64    55  32.4
 6 1030.  10.2  38.5    45    53  3.47    54  27.8
 7  935.  12.1   3.5    30    43  3.47    56  36.6
 8  900.  10.6   5.3    30    45  1.39    56  47.3
 9 1002.  10.5   8.1    24    36  2.48    61  31.2
10  912.  10.7   6.7    27    36  1.95    59  29.1
# ℹ 43 more rows
…
